{
  "Requires": {
    "user": {
      "cur_user": {
        "Redirect": "/login"
      }
    },
    "admin": {
      "cur_admin": {
        "Redirect": "/admin/login"
      }
    }
  },
  "Inputs": {
    "user_id": {
      "From": "form",
      "Name": "uid",
      "Defval": 0
    },
    "cur_user": {
      "From": "session"
    },
    "yo": {
      "From": "const",
      "Defval": "hello world"
    }
  }
}
